{
  "BurstVersion": "ed7d93ab-72ae-4d46-9fc9-027b31698d75",
  "Assemblies": [
    {
      "FullName": "UnityEngine.CoreModule, Version=0.0.0.0, Culture=neutral, PublicKeyToken=null",
      "LastWriteTime": "2022-06-30T02:30:34Z"
    },
    {
      "FullName": "Unity.RenderPipelines.Universal.Runtime, Version=0.0.0.0, Culture=neutral, PublicKeyToken=null",
      "LastWriteTime": "2023-05-22T15:34:07.0261664Z"
    },
    {
      "FullName": "mscorlib, Version=4.0.0.0, Culture=neutral, PublicKeyToken=b77a5c561934e089",
      "LastWriteTime": "2022-06-30T02:10:04Z"
    },
    {
      "FullName": "netstandard, Version=2.1.0.0, Culture=neutral, PublicKeyToken=cc7b13ffcd2ddd51",
      "LastWriteTime": "2022-06-30T02:10:04Z"
    },
    {
      "FullName": "Unity.Mathematics, Version=1.0.0.0, Culture=neutral, PublicKeyToken=null",
      "LastWriteTime": "2023-05-22T15:34:07.0122039Z"
    },
    {
      "FullName": "mscorlib, Version=0.0.0.0, Culture=neutral, PublicKeyToken=null",
      "LastWriteTime": "2022-06-30T02:10:04Z"
    },
    {
      "FullName": "Unity.Burst, Version=0.0.0.0, Culture=neutral, PublicKeyToken=null",
      "LastWriteTime": "2023-05-22T15:34:07.1867366Z"
    }
  ],
  "Functions": [
    {
      "FullName": "Unity.Jobs.IJobExtensions+JobStruct`1[[UnityEngine.Rendering.Universal.RadixSortJob, Unity.RenderPipelines.Universal.Runtime, Version=0.0.0.0, Culture=neutral, PublicKeyToken=null]], UnityEngine.CoreModule, Version=0.0.0.0, Culture=neutral, PublicKeyToken=null::Execute(UnityEngine.Rendering.Universal.RadixSortJob&, Unity.RenderPipelines.Universal.Runtime, Version=0.0.0.0, Culture=neutral, PublicKeyToken=null|System.IntPtr, mscorlib, Version=4.0.0.0, Culture=neutral, PublicKeyToken=b77a5c561934e089|System.IntPtr, mscorlib, Version=4.0.0.0, Culture=neutral, PublicKeyToken=b77a5c561934e089|Unity.Jobs.LowLevel.Unsafe.JobRanges&, UnityEngine.CoreModule, Version=0.0.0.0, Culture=neutral, PublicKeyToken=null|System.Int32, mscorlib, Version=4.0.0.0, Culture=neutral, PublicKeyToken=b77a5c561934e089)",
      "ModuleOptionsHash": 15221144590354301703,
      "ModuleHash": "66b27d495873f6d769d64ae4a83b283f",
      "LinkName": "61C3A28A28E7C7BF",
      "AssemblyDependencyIndices": [
        0,
        1,
        2,
        3
      ]
    },
    {
      "FullName": "Unity.Jobs.IJobForExtensions+ForJobStruct`1[[UnityEngine.Rendering.Universal.LightExtractionJob, Unity.RenderPipelines.Universal.Runtime, Version=0.0.0.0, Culture=neutral, PublicKeyToken=null]], UnityEngine.CoreModule, Version=0.0.0.0, Culture=neutral, PublicKeyToken=null::Execute(UnityEngine.Rendering.Universal.LightExtractionJob&, Unity.RenderPipelines.Universal.Runtime, Version=0.0.0.0, Culture=neutral, PublicKeyToken=null|System.IntPtr, mscorlib, Version=4.0.0.0, Culture=neutral, PublicKeyToken=b77a5c561934e089|System.IntPtr, mscorlib, Version=4.0.0.0, Culture=neutral, PublicKeyToken=b77a5c561934e089|Unity.Jobs.LowLevel.Unsafe.JobRanges&, UnityEngine.CoreModule, Version=0.0.0.0, Culture=neutral, PublicKeyToken=null|System.Int32, mscorlib, Version=4.0.0.0, Culture=neutral, PublicKeyToken=b77a5c561934e089)",
      "ModuleOptionsHash": 15221144590354301703,
      "ModuleHash": "daa1aacc68cf901a84030bb757f26db7",
      "LinkName": "BE03A27DBA873915",
      "AssemblyDependencyIndices": [
        0,
        1,
        2,
        4,
        3
      ]
    },
    {
      "FullName": "Unity.Jobs.IJobForExtensions+ForJobStruct`1[[UnityEngine.Rendering.Universal.MinMaxZJob, Unity.RenderPipelines.Universal.Runtime, Version=0.0.0.0, Culture=neutral, PublicKeyToken=null]], UnityEngine.CoreModule, Version=0.0.0.0, Culture=neutral, PublicKeyToken=null::Execute(UnityEngine.Rendering.Universal.MinMaxZJob&, Unity.RenderPipelines.Universal.Runtime, Version=0.0.0.0, Culture=neutral, PublicKeyToken=null|System.IntPtr, mscorlib, Version=4.0.0.0, Culture=neutral, PublicKeyToken=b77a5c561934e089|System.IntPtr, mscorlib, Version=4.0.0.0, Culture=neutral, PublicKeyToken=b77a5c561934e089|Unity.Jobs.LowLevel.Unsafe.JobRanges&, UnityEngine.CoreModule, Version=0.0.0.0, Culture=neutral, PublicKeyToken=null|System.Int32, mscorlib, Version=4.0.0.0, Culture=neutral, PublicKeyToken=b77a5c561934e089)",
      "ModuleOptionsHash": 15221144590354301703,
      "ModuleHash": "8a2e31f9b1977750d2d43433fd8e5e04",
      "LinkName": "A03F6A9F19CA13EF",
      "AssemblyDependencyIndices": [
        0,
        1,
        4,
        2,
        3
      ]
    },
    {
      "FullName": "Unity.Jobs.IJobForExtensions+ForJobStruct`1[[UnityEngine.Rendering.Universal.SliceCombineJob, Unity.RenderPipelines.Universal.Runtime, Version=0.0.0.0, Culture=neutral, PublicKeyToken=null]], UnityEngine.CoreModule, Version=0.0.0.0, Culture=neutral, PublicKeyToken=null::Execute(UnityEngine.Rendering.Universal.SliceCombineJob&, Unity.RenderPipelines.Universal.Runtime, Version=0.0.0.0, Culture=neutral, PublicKeyToken=null|System.IntPtr, mscorlib, Version=4.0.0.0, Culture=neutral, PublicKeyToken=b77a5c561934e089|System.IntPtr, mscorlib, Version=4.0.0.0, Culture=neutral, PublicKeyToken=b77a5c561934e089|Unity.Jobs.LowLevel.Unsafe.JobRanges&, UnityEngine.CoreModule, Version=0.0.0.0, Culture=neutral, PublicKeyToken=null|System.Int32, mscorlib, Version=4.0.0.0, Culture=neutral, PublicKeyToken=b77a5c561934e089)",
      "ModuleOptionsHash": 15221144590354301703,
      "ModuleHash": "2d6185aec444d47298023ae2259c2a7e",
      "LinkName": "84AB01371756165C",
      "AssemblyDependencyIndices": [
        0,
        1,
        2,
        4,
        3
      ]
    },
    {
      "FullName": "Unity.Jobs.IJobExtensions+JobStruct`1[[UnityEngine.Rendering.Universal.DecalCreateDrawCallSystem+DrawCallJob, Unity.RenderPipelines.Universal.Runtime, Version=0.0.0.0, Culture=neutral, PublicKeyToken=null]], UnityEngine.CoreModule, Version=0.0.0.0, Culture=neutral, PublicKeyToken=null::Execute(UnityEngine.Rendering.Universal.DecalCreateDrawCallSystem+DrawCallJob&, Unity.RenderPipelines.Universal.Runtime, Version=0.0.0.0, Culture=neutral, PublicKeyToken=null|System.IntPtr, mscorlib, Version=4.0.0.0, Culture=neutral, PublicKeyToken=b77a5c561934e089|System.IntPtr, mscorlib, Version=4.0.0.0, Culture=neutral, PublicKeyToken=b77a5c561934e089|Unity.Jobs.LowLevel.Unsafe.JobRanges&, UnityEngine.CoreModule, Version=0.0.0.0, Culture=neutral, PublicKeyToken=null|System.Int32, mscorlib, Version=4.0.0.0, Culture=neutral, PublicKeyToken=b77a5c561934e089)",
      "ModuleOptionsHash": 15221144590354301703,
      "ModuleHash": "66849605fee845ba3f0fb91faa7bd14e",
      "LinkName": "76EDAD8C20800D03",
      "AssemblyDependencyIndices": [
        0,
        1,
        5,
        3,
        2,
        4
      ]
    },
    {
      "FullName": "Unity.Burst.Intrinsics.X86, Unity.Burst, Version=0.0.0.0, Culture=neutral, PublicKeyToken=null::DoGetCSRTrampoline()",
      "ModuleOptionsHash": 15221144590354301703,
      "ModuleHash": "21ad7224a2a5a8c0ad1f797a68cbc284",
      "LinkName": "CDCA4A5193BE5947",
      "AssemblyDependencyIndices": [
        6,
        3,
        2
      ]
    },
    {
      "FullName": "Unity.Burst.Intrinsics.X86, Unity.Burst, Version=0.0.0.0, Culture=neutral, PublicKeyToken=null::DoSetCSRTrampoline(System.Int32, mscorlib, Version=4.0.0.0, Culture=neutral, PublicKeyToken=b77a5c561934e089)",
      "ModuleOptionsHash": 15221144590354301703,
      "ModuleHash": "055e33d66bb7eb78244e96b17a9b8491",
      "LinkName": "801E9A000BB37B05",
      "AssemblyDependencyIndices": [
        6,
        3,
        2
      ]
    },
    {
      "FullName": "Unity.Jobs.IJobForExtensions+ForJobStruct`1[[UnityEngine.Rendering.Universal.SliceCullingJob, Unity.RenderPipelines.Universal.Runtime, Version=0.0.0.0, Culture=neutral, PublicKeyToken=null]], UnityEngine.CoreModule, Version=0.0.0.0, Culture=neutral, PublicKeyToken=null::Execute(UnityEngine.Rendering.Universal.SliceCullingJob&, Unity.RenderPipelines.Universal.Runtime, Version=0.0.0.0, Culture=neutral, PublicKeyToken=null|System.IntPtr, mscorlib, Version=4.0.0.0, Culture=neutral, PublicKeyToken=b77a5c561934e089|System.IntPtr, mscorlib, Version=4.0.0.0, Culture=neutral, PublicKeyToken=b77a5c561934e089|Unity.Jobs.LowLevel.Unsafe.JobRanges&, UnityEngine.CoreModule, Version=0.0.0.0, Culture=neutral, PublicKeyToken=null|System.Int32, mscorlib, Version=4.0.0.0, Culture=neutral, PublicKeyToken=b77a5c561934e089)",
      "ModuleOptionsHash": 15221144590354301703,
      "ModuleHash": "e4a5ad434a6109159a5344e012cff43c",
      "LinkName": "E194DDA76BFCD7EC",
      "AssemblyDependencyIndices": [
        0,
        1,
        2,
        4,
        3
      ]
    },
    {
      "FullName": "Unity.Jobs.IJobForExtensions+ForJobStruct`1[[UnityEngine.Rendering.Universal.ZBinningJob, Unity.RenderPipelines.Universal.Runtime, Version=0.0.0.0, Culture=neutral, PublicKeyToken=null]], UnityEngine.CoreModule, Version=0.0.0.0, Culture=neutral, PublicKeyToken=null::Execute(UnityEngine.Rendering.Universal.ZBinningJob&, Unity.RenderPipelines.Universal.Runtime, Version=0.0.0.0, Culture=neutral, PublicKeyToken=null|System.IntPtr, mscorlib, Version=4.0.0.0, Culture=neutral, PublicKeyToken=b77a5c561934e089|System.IntPtr, mscorlib, Version=4.0.0.0, Culture=neutral, PublicKeyToken=b77a5c561934e089|Unity.Jobs.LowLevel.Unsafe.JobRanges&, UnityEngine.CoreModule, Version=0.0.0.0, Culture=neutral, PublicKeyToken=null|System.Int32, mscorlib, Version=4.0.0.0, Culture=neutral, PublicKeyToken=b77a5c561934e089)",
      "ModuleOptionsHash": 15221144590354301703,
      "ModuleHash": "5ce34cc1765d7add8dab8ab0cdda3d37",
      "LinkName": "AE539C59A9E52E70",
      "AssemblyDependencyIndices": [
        0,
        1,
        2,
        3,
        4
      ]
    },
    {
      "FullName": "UnityEngine.Jobs.IJobParallelForTransformExtensions+TransformParallelForLoopStruct`1[[UnityEngine.Rendering.Universal.DecalUpdateCachedSystem+UpdateTransformsJob, Unity.RenderPipelines.Universal.Runtime, Version=0.0.0.0, Culture=neutral, PublicKeyToken=null]], UnityEngine.CoreModule, Version=0.0.0.0, Culture=neutral, PublicKeyToken=null::Execute(UnityEngine.Rendering.Universal.DecalUpdateCachedSystem+UpdateTransformsJob&, Unity.RenderPipelines.Universal.Runtime, Version=0.0.0.0, Culture=neutral, PublicKeyToken=null|System.IntPtr, mscorlib, Version=4.0.0.0, Culture=neutral, PublicKeyToken=b77a5c561934e089|System.IntPtr, mscorlib, Version=4.0.0.0, Culture=neutral, PublicKeyToken=b77a5c561934e089|Unity.Jobs.LowLevel.Unsafe.JobRanges&, UnityEngine.CoreModule, Version=0.0.0.0, Culture=neutral, PublicKeyToken=null|System.Int32, mscorlib, Version=4.0.0.0, Culture=neutral, PublicKeyToken=b77a5c561934e089)",
      "ModuleOptionsHash": 15221144590354301703,
      "ModuleHash": "87ac3f6e11d084d7686613f6ba9822e3",
      "LinkName": "15301ED6F7D48D74",
      "AssemblyDependencyIndices": [
        0,
        1,
        2,
        3,
        4
      ]
    },
    {
      "FullName": "Unity.Jobs.IJobForExtensions+ForJobStruct`1[[UnityEngine.Rendering.Universal.ReorderJob`1[[UnityEngine.Rendering.VisibleLight, UnityEngine.CoreModule, Version=0.0.0.0, Culture=neutral, PublicKeyToken=null]], Unity.RenderPipelines.Universal.Runtime, Version=0.0.0.0, Culture=neutral, PublicKeyToken=null]], UnityEngine.CoreModule, Version=0.0.0.0, Culture=neutral, PublicKeyToken=null::Execute(UnityEngine.Rendering.Universal.ReorderJob`1[[UnityEngine.Rendering.VisibleLight, UnityEngine.CoreModule, Version=0.0.0.0, Culture=neutral, PublicKeyToken=null]]&, Unity.RenderPipelines.Universal.Runtime, Version=0.0.0.0, Culture=neutral, PublicKeyToken=null|System.IntPtr, mscorlib, Version=4.0.0.0, Culture=neutral, PublicKeyToken=b77a5c561934e089|System.IntPtr, mscorlib, Version=4.0.0.0, Culture=neutral, PublicKeyToken=b77a5c561934e089|Unity.Jobs.LowLevel.Unsafe.JobRanges&, UnityEngine.CoreModule, Version=0.0.0.0, Culture=neutral, PublicKeyToken=null|System.Int32, mscorlib, Version=4.0.0.0, Culture=neutral, PublicKeyToken=b77a5c561934e089)",
      "ModuleOptionsHash": 15221144590354301703,
      "ModuleHash": "9f83964e2c2da362de7222698d0793ef",
      "LinkName": "D61D1C0A6F02814B",
      "AssemblyDependencyIndices": [
        0,
        1,
        2
      ]
    },
    {
      "FullName": "Unity.Jobs.IJobForExtensions+ForJobStruct`1[[UnityEngine.Rendering.Universal.ReorderJob`1[[UnityEngine.Rendering.Universal.LightMinMaxZ, Unity.RenderPipelines.Universal.Runtime, Version=0.0.0.0, Culture=neutral, PublicKeyToken=null]], Unity.RenderPipelines.Universal.Runtime, Version=0.0.0.0, Culture=neutral, PublicKeyToken=null]], UnityEngine.CoreModule, Version=0.0.0.0, Culture=neutral, PublicKeyToken=null::Execute(UnityEngine.Rendering.Universal.ReorderJob`1[[UnityEngine.Rendering.Universal.LightMinMaxZ, Unity.RenderPipelines.Universal.Runtime, Version=0.0.0.0, Culture=neutral, PublicKeyToken=null]]&, Unity.RenderPipelines.Universal.Runtime, Version=0.0.0.0, Culture=neutral, PublicKeyToken=null|System.IntPtr, mscorlib, Version=4.0.0.0, Culture=neutral, PublicKeyToken=b77a5c561934e089|System.IntPtr, mscorlib, Version=4.0.0.0, Culture=neutral, PublicKeyToken=b77a5c561934e089|Unity.Jobs.LowLevel.Unsafe.JobRanges&, UnityEngine.CoreModule, Version=0.0.0.0, Culture=neutral, PublicKeyToken=null|System.Int32, mscorlib, Version=4.0.0.0, Culture=neutral, PublicKeyToken=b77a5c561934e089)",
      "ModuleOptionsHash": 15221144590354301703,
      "ModuleHash": "6c53286c698a307806ebcfdf18debcf1",
      "LinkName": "5FCDD8F068DD2902",
      "AssemblyDependencyIndices": [
        0,
        1,
        2,
        3
      ]
    }
  ]
}